<svg width="30" height="31" viewBox="0 0 30 31" fill="none" xmlns="http://www.w3.org/2000/svg">
<g clip-path="url(#clip0_2_534)">
<path d="M19.8153 4.15758C19.6503 4.9698 19.6503 5.8069 19.8153 6.61912H5.55189L14.8442 14.8185L21.0583 9.25543C21.5827 9.90405 22.2374 10.4444 22.982 10.837L14.8577 18.112L4.92296 9.34651V23.8499H24.6153V11.4191C25.4275 11.5841 26.2646 11.5841 27.0768 11.4191V25.0807C27.0768 25.4071 26.9471 25.7201 26.7163 25.9509C26.4855 26.1818 26.1725 26.3114 25.846 26.3114H3.6922C3.36577 26.3114 3.05272 26.1818 2.82191 25.9509C2.5911 25.7201 2.46143 25.4071 2.46143 25.0807V5.38835C2.46143 5.06193 2.5911 4.74888 2.82191 4.51807C3.05272 4.28725 3.36577 4.15758 3.6922 4.15758H19.8153ZM25.846 9.08066C25.3612 9.08066 24.881 8.98516 24.4331 8.7996C23.9851 8.61404 23.578 8.34207 23.2352 7.99921C22.8923 7.65635 22.6203 7.24931 22.4348 6.80134C22.2492 6.35337 22.1537 5.87323 22.1537 5.38835C22.1537 4.90347 22.2492 4.42334 22.4348 3.97537C22.6203 3.5274 22.8923 3.12036 23.2352 2.7775C23.578 2.43463 23.9851 2.16266 24.4331 1.97711C24.881 1.79155 25.3612 1.69604 25.846 1.69604C26.8253 1.69604 27.7645 2.08505 28.4569 2.7775C29.1493 3.46994 29.5383 4.40909 29.5383 5.38835C29.5383 6.36761 29.1493 7.30677 28.4569 7.99921C27.7645 8.69165 26.8253 9.08066 25.846 9.08066Z" fill="#1877F2"/>
</g>
<defs>
<clipPath id="clip0_2_534">
<rect width="29.5385" height="29.5385" fill="white" transform="translate(0 0.465332)"/>
</clipPath>
</defs>
</svg>
